{
	"info": {
		"_postman_id": "6a480f24-dacb-4b90-a96f-7b9e8df575b5",
		"name": "Enigma Newman",
		"description": "API for enigma puzzle game\n\nContact Support:\n Email: markjgerken@gmail.com",
		"schema": "https://schema.getpostman.com/json/collection/v2.1.0/collection.json"
	},
	"item": [
		{
			"name": "MEDIUM puzzle 1",
			"event": [
				{
					"listen": "test",
					"script": {
						"id": "dc20b5a2-f97b-4d0c-b4d3-6940a0551650",
						"exec": [
							"pm.test(\"Puzzle can be solved by the solution endpoint\", function () { \r",
							"    pm.response.to.have.status(200);\r",
							"\r",
							"    pm.sendRequest(\r",
							"        {\r",
							"            url: pm.environment.get(\"baseUrl\") + '/solution',\r",
							"            method: 'POST',\r",
							"            header: {\r",
							"                'content-type': 'application/json'\r",
							"            },\r",
							"            body: {\r",
							"                mode: 'raw',\r",
							"                raw: pm.response.text()\r",
							"            }\r",
							"        },\r",
							"        function (err, res) {\r",
							"            pm.expect(res).to.have.status(200);\r",
							"            pm.expect(res.json()).to.have.property('moves');\r",
							"            pm.expect(res.json().moves.length).to.not.equal(0);\r",
							"        }\r",
							"    );\r",
							"});"
						],
						"type": "text/javascript"
					}
				}
			],
			"request": {
				"method": "GET",
				"header": [],
				"url": {
					"raw": "{{baseUrl}}/puzzle?width=100&height=10&difficulty=MEDIUM",
					"host": [
						"{{baseUrl}}"
					],
					"path": [
						"puzzle"
					],
					"query": [
						{
							"key": "width",
							"value": "100",
							"description": "The width of the puzzle to be generated."
						},
						{
							"key": "height",
							"value": "10",
							"description": "The height of the puzzle to be generated."
						},
						{
							"key": "difficulty",
							"value": "MEDIUM",
							"description": "The difficulty of the puzzle to be generated."
						}
					]
				},
				"description": "Generate and return a new puzzle"
			},
			"response": [
				{
					"name": "A puzzle generated to match the request.",
					"originalRequest": {
						"method": "GET",
						"header": [],
						"url": {
							"raw": "{{baseUrl}}/puzzle?width=<number>&height=<number>&difficulty=<string>",
							"host": [
								"{{baseUrl}}"
							],
							"path": [
								"puzzle"
							],
							"query": [
								{
									"key": "width",
									"value": "<number>"
								},
								{
									"key": "height",
									"value": "<number>"
								},
								{
									"key": "difficulty",
									"value": "<string>"
								}
							]
						}
					},
					"status": "OK",
					"code": 200,
					"_postman_previewlanguage": "json",
					"header": [
						{
							"key": "Content-Type",
							"value": "application/json"
						}
					],
					"cookie": [],
					"body": "{\n \"par\": 3,\n \"map\": {\n  \"width\": 9,\n  \"height\": 9,\n  \"blocks\": [\n   {\n    \"x\": 0,\n    \"y\": 5,\n    \"blockType\": \"angle_0\"\n   },\n   {\n    \"x\": 0,\n    \"y\": 2,\n    \"blockType\": \"angle_2\"\n   },\n   {\n    \"x\": 5,\n    \"y\": 5,\n    \"blockType\": \"player\"\n   },\n   {\n    \"x\": 8,\n    \"y\": 5,\n    \"blockType\": \"rock\"\n   },\n   {\n    \"x\": 3,\n    \"y\": 0,\n    \"blockType\": \"rock\"\n   },\n   {\n    \"x\": 4,\n    \"y\": 2,\n    \"blockType\": \"rock\"\n   },\n   {\n    \"x\": 8,\n    \"y\": 1,\n    \"blockType\": \"rock\"\n   }\n  ]\n }\n}"
				}
			]
		},
		{
			"name": "MEDIUM puzzle 2",
			"event": [
				{
					"listen": "test",
					"script": {
						"id": "06b7dd1b-ffe7-4218-aaac-edd6faaf5570",
						"exec": [
							"pm.test(\"Puzzle can be solved by the solution endpoint\", function () { \r",
							"    pm.response.to.have.status(200);\r",
							"\r",
							"    pm.sendRequest(\r",
							"        {\r",
							"            url: pm.environment.get(\"baseUrl\") + '/solution',\r",
							"            method: 'POST',\r",
							"            header: {\r",
							"                'content-type': 'application/json'\r",
							"            },\r",
							"            body: {\r",
							"                mode: 'raw',\r",
							"                raw: pm.response.text()\r",
							"            }\r",
							"        },\r",
							"        function (err, res) {\r",
							"            pm.expect(res).to.have.status(200);\r",
							"            pm.expect(res.json()).to.have.property('moves');\r",
							"            pm.expect(res.json().moves.length).to.not.equal(0);\r",
							"        }\r",
							"    );\r",
							"});"
						],
						"type": "text/javascript"
					}
				}
			],
			"request": {
				"method": "GET",
				"header": [],
				"url": {
					"raw": "{{baseUrl}}/puzzle?width=100&height=11&difficulty=MEDIUM",
					"host": [
						"{{baseUrl}}"
					],
					"path": [
						"puzzle"
					],
					"query": [
						{
							"key": "width",
							"value": "100",
							"description": "The width of the puzzle to be generated."
						},
						{
							"key": "height",
							"value": "11",
							"description": "The height of the puzzle to be generated."
						},
						{
							"key": "difficulty",
							"value": "MEDIUM",
							"description": "The difficulty of the puzzle to be generated."
						}
					]
				},
				"description": "Generate and return a new puzzle"
			},
			"response": [
				{
					"name": "A puzzle generated to match the request.",
					"originalRequest": {
						"method": "GET",
						"header": [],
						"url": {
							"raw": "{{baseUrl}}/puzzle?width=<number>&height=<number>&difficulty=<string>",
							"host": [
								"{{baseUrl}}"
							],
							"path": [
								"puzzle"
							],
							"query": [
								{
									"key": "width",
									"value": "<number>"
								},
								{
									"key": "height",
									"value": "<number>"
								},
								{
									"key": "difficulty",
									"value": "<string>"
								}
							]
						}
					},
					"status": "OK",
					"code": 200,
					"_postman_previewlanguage": "json",
					"header": [
						{
							"key": "Content-Type",
							"value": "application/json"
						}
					],
					"cookie": [],
					"body": "{\n \"par\": 3,\n \"map\": {\n  \"width\": 9,\n  \"height\": 9,\n  \"blocks\": [\n   {\n    \"x\": 0,\n    \"y\": 5,\n    \"blockType\": \"angle_0\"\n   },\n   {\n    \"x\": 0,\n    \"y\": 2,\n    \"blockType\": \"angle_2\"\n   },\n   {\n    \"x\": 5,\n    \"y\": 5,\n    \"blockType\": \"player\"\n   },\n   {\n    \"x\": 8,\n    \"y\": 5,\n    \"blockType\": \"rock\"\n   },\n   {\n    \"x\": 3,\n    \"y\": 0,\n    \"blockType\": \"rock\"\n   },\n   {\n    \"x\": 4,\n    \"y\": 2,\n    \"blockType\": \"rock\"\n   },\n   {\n    \"x\": 8,\n    \"y\": 1,\n    \"blockType\": \"rock\"\n   }\n  ]\n }\n}"
				}
			]
		},
		{
			"name": "MEDIUM puzzle 3",
			"event": [
				{
					"listen": "test",
					"script": {
						"id": "93acb8e9-42b3-4a59-bddb-8cb3ba741eb9",
						"exec": [
							"pm.test(\"Puzzle can be solved by the solution endpoint\", function () { \r",
							"    pm.response.to.have.status(200);\r",
							"\r",
							"    pm.sendRequest(\r",
							"        {\r",
							"            url: pm.environment.get(\"baseUrl\") + '/solution',\r",
							"            method: 'POST',\r",
							"            header: {\r",
							"                'content-type': 'application/json'\r",
							"            },\r",
							"            body: {\r",
							"                mode: 'raw',\r",
							"                raw: pm.response.text()\r",
							"            }\r",
							"        },\r",
							"        function (err, res) {\r",
							"            pm.expect(res).to.have.status(200);\r",
							"            pm.expect(res.json()).to.have.property('moves');\r",
							"            pm.expect(res.json().moves.length).to.not.equal(0);\r",
							"        }\r",
							"    );\r",
							"});"
						],
						"type": "text/javascript"
					}
				}
			],
			"request": {
				"method": "GET",
				"header": [],
				"url": {
					"raw": "{{baseUrl}}/puzzle?width=100&height=12&difficulty=MEDIUM",
					"host": [
						"{{baseUrl}}"
					],
					"path": [
						"puzzle"
					],
					"query": [
						{
							"key": "width",
							"value": "100",
							"description": "The width of the puzzle to be generated."
						},
						{
							"key": "height",
							"value": "12",
							"description": "The height of the puzzle to be generated."
						},
						{
							"key": "difficulty",
							"value": "MEDIUM",
							"description": "The difficulty of the puzzle to be generated."
						}
					]
				},
				"description": "Generate and return a new puzzle"
			},
			"response": [
				{
					"name": "A puzzle generated to match the request.",
					"originalRequest": {
						"method": "GET",
						"header": [],
						"url": {
							"raw": "{{baseUrl}}/puzzle?width=<number>&height=<number>&difficulty=<string>",
							"host": [
								"{{baseUrl}}"
							],
							"path": [
								"puzzle"
							],
							"query": [
								{
									"key": "width",
									"value": "<number>"
								},
								{
									"key": "height",
									"value": "<number>"
								},
								{
									"key": "difficulty",
									"value": "<string>"
								}
							]
						}
					},
					"status": "OK",
					"code": 200,
					"_postman_previewlanguage": "json",
					"header": [
						{
							"key": "Content-Type",
							"value": "application/json"
						}
					],
					"cookie": [],
					"body": "{\n \"par\": 3,\n \"map\": {\n  \"width\": 9,\n  \"height\": 9,\n  \"blocks\": [\n   {\n    \"x\": 0,\n    \"y\": 5,\n    \"blockType\": \"angle_0\"\n   },\n   {\n    \"x\": 0,\n    \"y\": 2,\n    \"blockType\": \"angle_2\"\n   },\n   {\n    \"x\": 5,\n    \"y\": 5,\n    \"blockType\": \"player\"\n   },\n   {\n    \"x\": 8,\n    \"y\": 5,\n    \"blockType\": \"rock\"\n   },\n   {\n    \"x\": 3,\n    \"y\": 0,\n    \"blockType\": \"rock\"\n   },\n   {\n    \"x\": 4,\n    \"y\": 2,\n    \"blockType\": \"rock\"\n   },\n   {\n    \"x\": 8,\n    \"y\": 1,\n    \"blockType\": \"rock\"\n   }\n  ]\n }\n}"
				}
			]
		}
	],
	"variable": [
		{
			"id": "baseUrl",
			"key": "baseUrl",
			"value": "/api",
			"type": "string"
		}
	],
	"protocolProfileBehavior": {}
}